BWT-grupa2,vjezbe,ponedjeljak,13:30,15:00
BWT1-grupa1,predavanje,ponedjeljak,09:00,11:00
FWT,predavanje,ponedjeljak,20:00,22:00
MUR1-grupa1,predavanje,ponedjeljak,22:02,22:03
BWT4,predavanje,ponedjeljak,22:05,22:06
BWT5,predavanje,utorak,09:00,11:00
BWT6,predavanje,srijeda,09:00,09:01